<?xml version="1.0" encoding="utf-8"?>
<!-- Generator: Adobe Illustrator 22.0.1, SVG Export Plug-In . SVG Version: 6.00 Build 0)  -->
<svg version="1.1" id="Layer_1" xmlns="http://www.w3.org/2000/svg" xmlns:xlink="http://www.w3.org/1999/xlink" x="0px" y="0px"
	 viewBox="0 0 2482.5 708.5" style="enable-background:new 0 0 2482.5 708.5;" xml:space="preserve">
<style type="text/css">
	.st0{fill:#515251;}
</style>
<g>
	<g>
		<path class="st0" d="M565.9,465.1V221h179.3c11.8,0,21.7,1,29.8,3c8.1,2,14.6,5.4,19.6,10.1c5,4.7,8.6,11.1,10.8,19.2
			c2.2,8,3.3,18.1,3.3,30.2v15.3c0,23.2-9.9,36.5-29.8,40.1c9.8,1.4,18.1,5.7,24.9,12.8c6.8,7.1,10.1,18,10.1,32.6v16
			c0,12.5-1.3,23-3.9,31.4c-2.6,8.4-6.7,15.1-12.3,20c-5.6,5-12.7,8.5-21.4,10.5c-8.7,2-19.1,3-31.1,3H565.9z M764.8,290.2
			c0-7.8-1.5-13.2-4.4-16.3c-2.9-3.1-8-4.6-15.2-4.6H610v52.9h135.5c7,0,11.9-1.7,14.9-5.1c2.9-3.4,4.4-9.3,4.4-17.6V290.2z
			 M770,385.6c0-9-1.6-15.3-4.7-19c-3.2-3.7-9.3-5.5-18.5-5.5H610v56.1h135.1c9.8,0,16.4-1.7,19.8-5.1c3.4-3.4,5.1-9.3,5.1-17.6
			L770,385.6L770,385.6z"/>
		<path class="st0" d="M848.5,465.1V221h216.3v48.3H892.7v53.9h167.2v39.4H892.7v54.6h172.1v47.9H848.5z M917.9,201.1v-22L1017,144
			v30.2L917.9,201.1z"/>
		<path class="st0" d="M1292.5,465.1l-77.9-79.8h-71v79.8h-44.5V221H1283c12,0,22.1,1.4,30.3,4.1c8.2,2.7,14.8,7,19.8,13
			c5,5.9,8.7,13.7,11,23.4c2.3,9.7,3.4,21.4,3.4,35.1v14.9c0,14.9-1.4,27.1-4.1,36.5c-2.7,9.5-7.1,16.9-13.3,22.4
			c-6.1,5.4-14,9.2-23.6,11.2c-9.6,2-21.4,3-35.3,3l83.4,80.5H1292.5z M1303.7,304.7c0-11.8-1.3-20.6-3.8-26.4
			c-2.5-5.8-8.6-8.7-18.2-8.7h-138.1v75.6h138.1c7.9,0,13.5-2.1,16.8-6.4c3.4-4.3,5.1-11.7,5.1-22.4V304.7z"/>
		<path class="st0" d="M1582.4,465.1l-88.7-95.8l-67.7,66v29.8h-44.5V221h44.5v154l156.4-154h63.8l-122,118.5l121.4,125.6H1582.4z"
			/>
		<path class="st0" d="M1895.5,465.1l-28.1-56.8h-135.8l-28.1,56.8h-50.4L1776.4,221h46.1l123.4,244.1H1895.5z M1799.7,268.9
			l-51,101.1h102.1L1799.7,268.9z"/>
		<path class="st0" d="M2013.3,386v79.1h-44.2V221H2138c12.9,0,23.7,1.2,32.4,3.7c8.7,2.5,15.7,6.6,20.9,12.2
			c5.2,5.7,9,13.3,11.3,22.7c2.3,9.5,3.4,21.3,3.4,35.5v22c0,12.5-1.1,23.2-3.4,31.9c-2.3,8.8-6.1,15.9-11.3,21.3
			c-5.2,5.4-12.2,9.4-20.9,11.9c-8.7,2.5-19.5,3.7-32.4,3.7H2013.3z M2162.2,295.2c0-9.7-1.8-16.4-5.4-20.2
			c-3.6-3.8-9.9-5.7-18.8-5.7h-124.7v73.1H2138c8.9,0,15.2-2,18.8-5.9c3.6-3.9,5.4-10.2,5.4-19V295.2z"/>
		<path class="st0" d="M2304.5,465.1c-12.4,0-23-1.4-31.6-4.3c-8.6-2.8-15.6-7.4-20.9-13.7c-5.3-6.3-9.2-14.2-11.6-24
			c-2.4-9.7-3.6-21.5-3.6-35.5V221h43.8v166.8c0,10.4,1.8,17.9,5.4,22.5c3.6,4.6,9.8,6.9,18.5,6.9h109.9c8.7,0,14.9-2.3,18.5-6.9
			c3.6-4.6,5.4-12.1,5.4-22.5V221h44.2v166.8c0,14-1.2,25.8-3.6,35.5c-2.4,9.7-6.3,17.7-11.6,24c-5.3,6.3-12.4,10.8-21.1,13.7
			c-8.7,2.8-19.3,4.3-31.7,4.3H2304.5z"/>
	</g>
	<g>
		<path class="st0" d="M353.1,195.9l-213.4,16.7v271.1c34.8,17.8,74.3,27.8,116.1,27.8c34.4,0,67.3-6.8,97.3-19.2V195.9z"/>
		<path class="st0" d="M255.8,0C114.5,0,0,114.5,0,255.8c0,65.1,24.3,124.5,64.3,169.6V218.6h0v-83.4l364.1-28.5v25.9h0v312
			c51.1-46.8,83.2-114,83.2-188.7C511.6,114.5,397,0,255.8,0z"/>
	</g>
	<path class="st0" d="M428.3,519.7l117.9,89l-116.9,99.8l-1.4-54.5l-288.2-69.5l0,0.1l288.7-9.4L428.3,519.7L428.3,519.7z"/>
</g>
</svg>
